{
  "tests": "./tests/*_test.js",
  "timeout": 10000,
  "output": "./tests/output",
  "helpers": {
    "Nightmare": {
      "url": "http://localhost:3000",
	  "windowSize": "1440x900"
    }
  },
  "include": {
    "I": "./tests/steps_file.js"
  },
  "bootstrap": false,
  "mocha": {},
  "name": "tests"
}